﻿2000.1.1 = {
	add_ideas = {
		#pop_050
		unrestrained_corruption
		gdp_3
		sunni
		youth_radicalization
		saudi_aid
		LoAS_member
		stable_growth
		defence_03
		edu_02
		health_01
		social_03
		bureau_02
		police_05
		muslim_brotherhood_home
		muslim_brotherhood_crackdown
		al_jazeera_banned
		draft_army
		no_women_in_military
		Major_Non_NATO_Ally
		intervention_limited_interventionism
		USA_usaid #https://explorer.usaid.gov/aid-dashboard.html
		the_military
		small_medium_business_owners
		oligarchs
		#hybrid
		#tax_cost_10
		
	}
	
	set_variable = { var = debt value = 118.26 }
	set_variable = { var = treasury value = 23 }
	set_variable = { var = int_investments value = 0 }
	set_variable = { var = tax_rate value = 18 }

	capital = 215
	oob = "EGY_2000"
	if = {
		limit = {
			has_dlc = "Man the Guns"
		}
		set_naval_oob = "EGY_2000_naval_mtg"
		else = {
			set_naval_oob = "EGY_2000_naval_legacy"
		}
	}
	set_convoys = 50
	
	add_ideas = {
		gdp_4
	}
	
	### EGY ###
	#Influence system
	init_influence = yes
	set_variable = { domestic_influence_amount = 270 }
	add_to_array = { influence_array = USA.id }
	add_to_array = { influence_array_val = 70 }
	add_to_array = { influence_array = ENG.id }
	add_to_array = { influence_array_val = 15 }
	add_to_array = { influence_array = SAU.id }
	add_to_array = { influence_array_val = 30 }
	add_to_array = { influence_array = SOV.id }
	add_to_array = { influence_array_val = 25 }
	add_to_array = { influence_array = CHI.id }
	add_to_array = { influence_array_val = 12 }
	add_to_array = { influence_array = PAK.id }
	add_to_array = { influence_array_val = 15 }
	add_to_array = { influence_array = ISR.id }
	add_to_array = { influence_array_val = 10 }
	startup_influence = yes
	
	set_technology = { 
		legacy_doctrines = 1 
		grand_battleplan = 1 
		deep_echelon_advance = 1 
		rigid_hierarchy = 1 
		praetorian_guard = 1
		
		night_vision_1 = 1
		night_vision_2 = 1
		
		SP_R_arty_0 = 1
		SP_Anti_Air_0 = 1
		
		#Maadi Rifle
		infantry_weapons = 1
		
		#Ayn al Saqr
		Anti_Air_0 = 1
		
		#Ramses II
		MBT_1 = 1
		
		#EIFV
		early_APC = 1
		IFV_1 = 1
		IFV_2 = 1
		IFV_3 = 1
		
		#Fahd
		APC_1 = 1
		APC_2 = 1
		
		#Helwan HA-300
		early_fighter = 1
		AS_Fighter1 = 1
		
		landing_craft = 1
		
		#For templates
		combat_eng_equipment = 1
		command_control_equipment = 1
		Anti_tank_0 = 1
		Heavy_Anti_tank_0 = 1
		artillery_0 = 1
		SP_arty_0 = 1
		Air_APC_1 = 1
		util_vehicle_0 = 1
		Rec_tank_0 = 1
		ENGI_MBT_1 = 1
		Air_IFV_1 = 1
		early_helicopter = 1
		transport_helicopter1 = 1
		
		#Basic generic package for purchases to work
		corvette_1 = 1
		frigate_1 = 1
		submarine_1 = 1
		diesel_attack_submarine_1 = 1
		destroyer_1 = 1
		LPD_0 = 1
		
		body_armor_1980 = 1
		camouflage = 1
		camouflage2 = 1
	}

	set_politics = {
		parties = {
			democratic = { #western
				popularity = 36.0 
			}
			communism = { #Emerging
				popularity = 3.0 
			}
			fascism = { #Salafist
				popularity = 8 
			}
			neutrality = { #neutrality
				popularity = 38.0
			}
			nationalist = { #nationalist
				popularity = 15.0 
			}
		}
		
		ruling_party = democratic
		last_election = "1995.11.29"
		election_frequency = 72
		elections_allowed = no
	}
	
	start_politics_input = yes

	set_variable = { party_pop_array^0 = 0.30 } #Western_Autocracy
	set_variable = { party_pop_array^1 = 0 } #conservatism
	set_variable = { party_pop_array^2 = 0.06 } #liberalism
	set_variable = { party_pop_array^3 = 0 } #socialism
	set_variable = { party_pop_array^4 = 0.01 } #Communist-State
	set_variable = { party_pop_array^5 = 0.01 } #anarchist_communism
	set_variable = { party_pop_array^6 = 0.01 } #Conservative
	set_variable = { party_pop_array^7 = 0 } #Autocracy
	set_variable = { party_pop_array^8 = 0 } #Mod_Vilayat_e_Faqih
	set_variable = { party_pop_array^9 = 0 } #Vilayat_e_Faqih
	set_variable = { party_pop_array^10 = 0.05 } #Kingdom
	set_variable = { party_pop_array^11 = 0.03 } #Caliphate
	set_variable = { party_pop_array^12 = 0.35 } #Neutral_Muslim_Brotherhood
	set_variable = { party_pop_array^13 = 0 } #Neutral_Autocracy
	set_variable = { party_pop_array^14 = 0.02 } #Neutral_conservatism
	set_variable = { party_pop_array^15 = 0 } #oligarchism
	set_variable = { party_pop_array^16 = 0 } #Neutral_Libertarian
	set_variable = { party_pop_array^17 = 0 } #Neutral_green
	set_variable = { party_pop_array^18 = 0.01 } #neutral_Social
	set_variable = { party_pop_array^19 = 0 } #Neutral_Communism
	set_variable = { party_pop_array^20 = 0 } #Nat_Populism
	set_variable = { party_pop_array^21 = 0 } #Nat_Fascism
	set_variable = { party_pop_array^22 = 0.15 } #Nat_Autocracy
	set_variable = { party_pop_array^23 = 0 } #Monarchist
	
	add_to_array = { ruling_party = 0 }	#Western_Autocracy
	add_to_array = { gov_coalition_array = 22 } #Nat_Autocracy
	startup_politics = yes

	create_country_leader = {
		name = "Hosni Mubarak"
		picture = "hosni_mubarak.dds"
		ideology = Western_Autocracy
		traits = {
			western_Western_Autocracy
		}
	}
	
	create_corps_commander = { 
		name = "Mahmoud Hejazi"
		picture = "generals/Mahmoud_Hejazi.dds"
		id = 19200
		skill = 2
		attack_skill = 2
		defense_skill = 2
		planning_skill = 2
		logistics_skill = 2
	}
	create_corps_commander = { 
		name = "Mohamed Tantawi"
		picture = "generals/Mohamed_Tantawi.dds"
		id = 19201
		skill = 1
		attack_skill = 1
		defense_skill = 1
		planning_skill = 1
		logistics_skill = 1
	}
	create_corps_commander = { 
		name = "Ahmed Mohamed"
		picture = "generals/Ahmed_Mohamed.dds"
		id = 19202
		skill = 1
		attack_skill = 1
		defense_skill = 1
		planning_skill = 1
		logistics_skill = 1
	}
	create_corps_commander = { 
		name = "Sedki Sobhi" 
		picture = "generals/Sedki_Sobhi.dds"
		id = 19203
		skill = 1
		attack_skill = 1
		defense_skill = 1
		planning_skill = 1
		logistics_skill = 1
	}
	create_corps_commander = { 
		name = "Mohamed Samir" 
		picture = "generals/Mohamed_Samir.dds"
		id = 19204
		skill = 1
		attack_skill = 1
		defense_skill = 1
		planning_skill = 1
		logistics_skill = 1
	}
	create_corps_commander = { 
		name = "Osama al-Jamal" 
		picture = "generals/Osama_Al_Jamal.dds"
		id = 19205
		skill = 1
		attack_skill = 1
		defense_skill = 1
		planning_skill = 1
		logistics_skill = 1
	}
	create_corps_commander = { 
		name = "Younes el-Masri" 
		picture = "generals/Younes_el-Masri.dds"
		id = 19206
		skill = 1
		attack_skill = 1
		defense_skill = 1
		planning_skill = 1
		logistics_skill = 1
	}
	create_corps_commander = { 
		name = "Mokhtar El-Molla" 
		picture = "generals/Portrait_Mokhtar_El_Molla.dds"
		id = 19207
		skill = 1
		attack_skill = 1
		defense_skill = 1
		planning_skill = 1
		logistics_skill = 1
	}
	create_corps_commander = { 
		name = "Mamdouh Shaheen" 
		picture = "generals/Portrait_Mamdouh_Shaheen.dds"
		id = 19208
		skill = 2
		attack_skill = 2
		defense_skill = 2
		planning_skill = 2
		logistics_skill = 2
	}
	create_corps_commander = {
		name = "Abdul Meniem al-Toras" 
		picture = "generals/Portrait_Abdul_Meniem_Al_Toras.dds"
		id = 19209
		skill = 1
		attack_skill = 1
		defense_skill = 1
		planning_skill = 1
		logistics_skill = 1
	}

	create_navy_leader = { 
		name = "Ahmed Hassan Saeed" 
		picture = "admirals/Ahmed_H_Saeed"
		id = 19210
	}
	create_navy_leader = { 
		name = "Mohamed Abdel Aziz"  
		picture = "admirals/Mohamed_Abdel_Aziz"
		id = 19211
	}
	create_navy_leader = { 
		name = "Osama El-Gendi"  
		picture = "admirals/Osama_El_Gendi"
		id = 19212
	}
	create_navy_leader = { 
		name = "Osama Raba'ai"
		picture = "admirals/Osama_Raba_ai"
		id = 19213
	}
	create_navy_leader = { 
		name = "Mohab Mamish"  
		picture = "admirals/Mohab_Mamish" 
		id = 19214
	}
}

2017.1.1 = {
	capital = 215
	oob = "EGY_2017"
	if = {
		limit = {
			has_dlc = "Man the Guns"
		}
		set_naval_oob = "EGY_2017_naval_mtg"
		else = {
			set_naval_oob = "EGY_2017_naval_legacy"
		}
	}
	set_convoys = 50
	
	add_ideas = {
		#pop_050
		unrestrained_corruption
		gdp_3
		sunni
		youth_radicalization
		saudi_aid
		LoAS_member
		stable_growth
		defence_03
		edu_02
		health_01
		social_03
		bureau_02
		police_05
		muslim_brotherhood_home
		muslim_brotherhood_crackdown
		al_jazeera_banned
		draft_army
		no_women_in_military
		Major_Non_NATO_Ally
		restoring_hope
		intervention_limited_interventionism
		USA_usaid #https://explorer.usaid.gov/aid-dashboard.html
		the_military
		small_medium_business_owners
		oligarchs
		#hybrid
		#tax_cost_10
		
	}
	
	#Influence system
	init_influence = yes
	set_variable = { domestic_influence_amount = 270 }
	add_to_array = { influence_array = USA.id }
	add_to_array = { influence_array_val = 65 }
	add_to_array = { influence_array = ENG.id }
	add_to_array = { influence_array_val = 15 }
	add_to_array = { influence_array = SAU.id }
	add_to_array = { influence_array_val = 75 }
	add_to_array = { influence_array = SOV.id }
	add_to_array = { influence_array_val = 25 }
	add_to_array = { influence_array = CHI.id }
	add_to_array = { influence_array_val = 12 }
	add_to_array = { influence_array = PAK.id }
	add_to_array = { influence_array_val = 15 }
	add_to_array = { influence_array = ISR.id }
	add_to_array = { influence_array_val = 19 }
	startup_influence = yes
	
	#set_country_flag = gdp_3
	set_country_flag = Major_Non_NATO_Ally
	set_country_flag = Major_Importer_US_Arms #Trends-in-international-arms-transfers-2016.pdf
	set_country_flag = negative_small_medium_business_owners
	
	set_variable = { var = debt value = 245 }
	set_variable = { var = treasury value = 23 }
	set_variable = { var = int_investments value = 0 }
	set_variable = { var = tax_rate value = 18 }
	
	#set_variable = { var = size_modifier value = 2.50 } #14 CIC
	#initial_money_setup = yes
	
	#Nat focus
	complete_national_focus = bonus_tech_slots
	complete_national_focus = Generic_4K_GDPC_slot
	complete_national_focus = Generic_4_IC_slot
	complete_national_focus = Generic_8_IC_slot
	complete_national_focus = Generic_16_IC_slot
	
	# Starting tech
	set_technology = { 
		SP_arty_1 = 1
		SP_R_arty_1 = 1
	}

	set_politics = {
		parties = {
			democratic = { #western
				popularity = 41.0 
			}
			communism = { #Emerging
				popularity = 3.0 
			}
			fascism = { #Salafist
				popularity = 15.0 
			}
			neutrality = { #neutrality
				popularity = 22.0 
			}
			nationalist = { #nationalist
				popularity = 19.0 
			}
		}
		
		ruling_party = democratic
		last_election = "2014.5.28"
		election_frequency = 60
		elections_allowed = no
	}

	start_politics_input = yes

	set_variable = { party_pop_array^0 = 0.30 } #Western_Autocracy
	set_variable = { party_pop_array^1 = 0.02 } #conservatism
	set_variable = { party_pop_array^2 = 0.09 } #liberalism
	set_variable = { party_pop_array^3 = 0.01 } #socialism
	set_variable = { party_pop_array^4 = 0 } #Communist-State
	set_variable = { party_pop_array^5 = 0 } #anarchist_communism
	set_variable = { party_pop_array^6 = 0.01 } #Conservative
	set_variable = { party_pop_array^7 = 0.02 } #Autocracy
	set_variable = { party_pop_array^8 = 0 } #Mod_Vilayat_e_Faqih
	set_variable = { party_pop_array^9 = 0 } #Vilayat_e_Faqih
	set_variable = { party_pop_array^10 = 0.09 } #Kingdom
	set_variable = { party_pop_array^11 = 0.06 } #Caliphate
	set_variable = { party_pop_array^12 = 0.12 } #Neutral_Muslim_Brotherhood
	set_variable = { party_pop_array^13 = 0.03 } #Neutral_Autocracy
	set_variable = { party_pop_array^14 = 0.06 } #Neutral_conservatism
	set_variable = { party_pop_array^15 = 0 } #oligarchism
	set_variable = { party_pop_array^16 = 0 } #Neutral_Libertarian
	set_variable = { party_pop_array^17 = 0 } #Neutral_green
	set_variable = { party_pop_array^18 = 0.01 } #neutral_Social
	set_variable = { party_pop_array^19 = 0 } #Neutral_Communism
	set_variable = { party_pop_array^20 = 0.01 } #Nat_Populism
	set_variable = { party_pop_array^21 = 0 } #Nat_Fascism
	set_variable = { party_pop_array^22 = 0.18 } #Nat_Autocracy
	set_variable = { party_pop_array^23 = 0 } #Monarchist
	
	add_to_array = { ruling_party = 0 }
	add_to_array = { gov_coalition_array = 22 } #Nat_Autocracy
	startup_politics = yes

	create_country_leader = {
		name = "Abdel Fattah el-Sisi"
		picture = "EGY_Abdel_Fattah_el-Sisi.dds"
		ideology = Western_Autocracy
		traits = {
			western_Western_Autocracy
		}
	}

##Land Variants
	create_equipment_variant = {
		name = "Fahd 240"
		type = APC_2
		upgrades = {
			tank_reliability_upgrade = 0
			tank_engine_upgrade = 1
			tank_armor_upgrade = 1
			tank_gun_upgrade = 0
		}
		obsolete = yes
	}

	create_equipment_variant = {
		name = "Fahd BTM-208"
		type = APC_2
		upgrades = {
			tank_reliability_upgrade = 0
			tank_engine_upgrade = 1
			tank_armor_upgrade = 1
			tank_gun_upgrade = 1
		}
		obsolete = yes
	}

	create_equipment_variant = {
		name = "Fahd 280-30"
		type = APC_2
		upgrades = {
			tank_reliability_upgrade = 0
			tank_engine_upgrade = 1
			tank_armor_upgrade = 1
			tank_gun_upgrade = 2
		}
	}
}