﻿2000.1.1 = {
	capital = 207
	oob = "ISR_2000"
	set_convoys = 25
	if = {
		limit = {
			has_dlc = "Man the Guns"
		}
		set_naval_oob = "ISR_2000_naval_mtg"
		else = {
			set_naval_oob = "ISR_2000_naval_legacy"
		}
	}
	
	#Flags
	set_country_flag = positive_small_medium_business_owners
	set_global_flag = sell_ISR_infantry_weapons4
	clr_global_flag = sell_ISR_infantry_weapons5
	set_global_flag = sell_ISR_cc_equi_3
	clr_global_flag = sell_ISR_cc_equi_4
	set_global_flag = sell_ISR_anti_tank_2
	set_global_flag = sell_ISR_H_anti_tank_2
	set_global_flag = sell_ISR_arty_1
	clr_global_flag = sell_ISR_arty_2
	
	add_ideas = {
		gdp_7
		#pop_050
		medium_corruption
		gdp_8
		judaism
		fast_growth
		defence_06
		edu_04
		health_03
		social_04
		bureau_03
		police_03
		draft_army
		drafted_women
		Major_Non_NATO_Ally
		the_military
		small_medium_business_owners
		intelligence_community
		intervention_limited_interventionism
		USA_usaid #https://explorer.usaid.gov/aid-dashboard.html
		western_country
		large_far_right_movement
		#hybrid
		#tax_cost_32
		
	}
	
	set_technology = {
		legacy_doctrines = 1 
		modern_blitzkrieg = 1 
		forward_defense = 1 
		encourage_nco_iniative = 1 
		air_land_battle = 1
		
		command_control_equipment = 1
		command_control_equipment1 = 1
		command_control_equipment2 = 1
		command_control_equipment3 = 1
		
		combat_eng_equipment = 1
		
		night_vision_1 = 1
		night_vision_2 = 1
		night_vision_3 = 1
		
		#TAR-21
		infantry_weapons = 1
		infantry_weapons1 = 1
		infantry_weapons2 = 1
		infantry_weapons3 = 1
		infantry_weapons4 = 1
		
		#Spike
		Anti_tank_0 = 1
		Anti_tank_1 = 1
		Anti_tank_2 = 1
		Heavy_Anti_tank_0 = 1
		Heavy_Anti_tank_1 = 1
		Heavy_Anti_tank_2 = 1
		AT_upgrade_1 = 1
		AT_upgrade_2 = 1
		
		#Merkava IV
		MBT_1 = 1
		MBT_2 = 1
		MBT_3 = 1
		MBT_4 = 1
		MBT_5 = 1
		
		#Nemmera ARV
		ENGI_MBT_1 = 1
		ENGI_MBT_2 = 1
		ENGI_MBT_3 = 1
		ENGI_MBT_4 = 1
		
		IFV_1 = 1
		IFV_2 = 1
		IFV_3 = 1
		
		#Namer
		Early_APC = 1
		APC_1 = 1
		
		#AIL Storm
		util_vehicle_0 = 1
		util_vehicle_1 = 1
		util_vehicle_2 = 1
		util_vehicle_3 = 1
		
		#IAI Kfir
		early_fighter = 1
		MR_Fighter1 = 1
		
		#IAI Nesher
		Strike_fighter1 = 1
		
		#Elbit Hermes 900
		
		#Elbit Hermes 450
		land_Drone_equipment = 1
		land_Drone_equipment1 = 1
		land_Drone_equipment2 = 1
		land_Drone_equipment3 = 1
		
		#ATHOS 2000
		artillery_0 = 1
		artillery_1 = 1
		
		Arty_upgrade_1 = 1
		Arty_upgrade_2 = 1
		
		#Rascal
		SP_arty_0 = 1
		SP_arty_1 = 1
		SP_arty_2 = 1
		
		#LAR-160
		SP_R_arty_0 = 1
		SP_R_arty_1 = 1
		
		Anti_Air_0 = 1
		Anti_Air_1 = 1
		
		AA_upgrade_1 = 1
		AA_upgrade_3 = 1
		SP_Anti_Air_0 = 1
		SP_Anti_Air_1 = 1
		
		#RAM-V-2
		Rec_tank_0 = 1
		Rec_tank_1 = 1
		
		#Saar 5-Class
		corvette_1 = 1
		corvette_2 = 1
		missile_corvette_1 = 1
		missile_corvette_2 = 1
		
		submarine_1 = 1
		
		landing_craft = 1
		
		body_armor_1980 = 1
		body_armor_2000 = 1
		
		corvette_1 = 1
	}
	
	### ISR ###
	#Influence system
	init_influence = yes
	set_variable = { domestic_influence_amount = 230 }
	add_to_array = { influence_array = USA.id }
	add_to_array = { influence_array_val = 90 }
	add_to_array = { influence_array = GER.id }
	add_to_array = { influence_array_val = 7 }
	add_to_array = { influence_array = TUR.id }
	add_to_array = { influence_array_val = 4 }
	add_to_array = { influence_array = CHI.id }
	add_to_array = { influence_array_val = 35 }
	add_to_array = { influence_array = SOV.id }
	add_to_array = { influence_array_val = 20 }
	add_to_array = { influence_array = RAJ.id }
	add_to_array = { influence_array_val = 15 }
	add_to_array = { influence_array = ENG.id }
	add_to_array = { influence_array_val = 12 }
	startup_influence = yes
	
	### Economy
	set_variable = { var = debt value = 154 }
	set_variable = { var = treasury value = 34 }
	set_variable = { var = tax_rate value = 27 }
	#set_variable = { var = int_investments value = ##idk### }
	#initial_money_setup = yes
	
	set_politics = {

		parties = {
			democratic = {
				popularity = 52
			}

			fascism = {
				popularity = 0
			}
			
			communism = {
				popularity = 11
			}
			
			neutrality = {
				popularity = 19
			}
			
			nationalist = {
				popularity = 18
			}
			
		}
		
		ruling_party = democratic
		last_election = "1998.6.1"
		election_frequency = 48
		elections_allowed = yes
	}
	
	start_politics_input = yes
	
	### Election Threshold
	set_variable = { election_threshold = 0.03 }
	
	### Party Popularities
	set_variable = { party_pop_array^1 = 0.52 } #conservatism
	set_variable = { party_pop_array^3 = 0.30 } #socialism
	set_variable = { party_pop_array^4 = 0.04 } #Communist-State
	set_variable = { party_pop_array^6 = 0.04 } #Conservative
	set_variable = { party_pop_array^5 = 0.03 } #anarchist_communism
	set_variable = { party_pop_array^18 = 0.08 } #neutral_Social
	set_variable = { party_pop_array^13 = 0.05 } #Neutral_Autocracy
	set_variable = { party_pop_array^12 = 0.06 } #Neutral_Muslim_Brotherhood
	set_variable = { party_pop_array^20 = 0.18 } #Nat_Populism
	
	### Ruling Party
	add_to_array = { ruling_party = 3 } #socialism
	
	#optional: special custom values representing % of votes in last election
	
	set_variable = { party_pop_elect_array^1 = 0.505 } #conservatism
	set_variable = { party_pop_elect_array^3 = 0.495 } #socialism
	
	startup_politics = yes
	
	create_country_leader = {
		name = "Ehud Barak"
		desc = "POLITICS_MACKENZIE_KING_DESC"
		picture = "barak_ehud.dds"
		expire = "2020.1.1" #Date not done yet
		ideology = socialism
		traits = {
			#
		}
	}
	
	create_corps_commander = {
		name = "Gabi Ashkenazi"
		picture = "Gabi_Ashkenazi.dds"
		traits = { urban_assault_specialist }
		id = 30600
		skill = 2
		attack_skill = 2
		defense_skill = 2
		planning_skill = 2
		logistics_skill = 2
	}
	create_corps_commander = {
		name = "Gadi Eizenkot"
		picture = "Gadi_Eizenkot.dds"
		traits = { commando }
		id = 30601
		skill = 1
		attack_skill = 1
		defense_skill = 1
		planning_skill = 1
		logistics_skill = 1
	}

	create_corps_commander = {
		name = "Dan Harel"
		picture = "Dan_Harel.dds"
		id = 30602
		skill = 1
		attack_skill = 1
		defense_skill = 1
		planning_skill = 1
		logistics_skill = 1
	}

	create_corps_commander = {
		name = "Dani Halutz"
		picture = "Dani_Halutz.dds"
		id = 30603
		skill = 1
		attack_skill = 1
		defense_skill = 1
		planning_skill = 1
		logistics_skill = 1
	}
	create_corps_commander = {
		name = "Yoav Galant"
		picture = "Yoav_Galant.dds"
		id = 30604
		skill = 1
		attack_skill = 1
		defense_skill = 1
		planning_skill = 1
		logistics_skill = 1
	}

	create_corps_commander = {
		name = "Doron Almog"
		picture = "Doron_Almog.dds"
		id = 30605
		skill = 1
		attack_skill = 1
		defense_skill = 1
		planning_skill = 1
		logistics_skill = 1
	}

	create_corps_commander = {
		name = "Shaul Mofaz"
		picture = "Shaul_Mofaz.dds"
		id = 30606
		skill = 1
		attack_skill = 1
		defense_skill = 1
		planning_skill = 1
		logistics_skill = 1
	}
	create_corps_commander = {
		name = "Moshe Yaalon"
		picture = "Moshe_Yaalon.dds"
		id = 30607
		skill = 1
		attack_skill = 1
		defense_skill = 1
		planning_skill = 1
		logistics_skill = 1
	}

	create_field_marshal = {
		name = "Gadi Eizenkot"
		picture = "gen_Gadi_Eizenkot.dds"
		traits = {  }
		id = 30608
		skill = 3
		attack_skill = 3
		defense_skill = 3
		planning_skill = 3
		logistics_skill = 3
	}
	create_corps_commander = {
		name = "Aviv Kochavi"
		picture = "gen_Aviv_Kochavi.dds"
		traits = {  }
		id = 30609
		skill = 2
		attack_skill = 2
		defense_skill = 2
		planning_skill = 2
		logistics_skill = 2
	}
	create_corps_commander = {
		name = "Kobi Barak"
		picture = "gen_Kobi_Barak.dds"
		traits = {  }
		id = 30610
		skill = 2
		attack_skill = 2
		defense_skill = 2
		planning_skill = 2
		logistics_skill = 2
	}
	create_corps_commander = {
		name = "Mickey Edelstein"
		picture = "gen_Mickey_Edelstein.dds"
		traits = {  }
		id = 30611
		skill = 2
		attack_skill = 2
		defense_skill = 2
		planning_skill = 2
		logistics_skill = 2
	}
	create_corps_commander = {
		name = "Nitzan Alon"
		picture = "gen_Nitzan_Alon.dds"
		traits = {  }
		id = 30612
		skill = 3
		attack_skill = 3
		defense_skill = 3
		planning_skill = 3
		logistics_skill = 3
	}
	create_corps_commander = {
		name = "Yoel Strik"
		picture = "gen_Yoel_Strik.dds"
		traits = {  }
		id = 30613
		skill = 2
		attack_skill = 2
		defense_skill = 2
		planning_skill = 2
		logistics_skill = 2
	}
	create_navy_leader = {
		name = "Eli Sharvit"
		picture = "adm_Eli_Sharvit.dds"
		traits = {  }
		id = 30614
	}
	create_field_marshal = {
		name = "Benny Gantz"
		picture = "Portrait_Benny_Gantz.dds"
		traits = { thorough_planner }
		id = 30615
		skill = 3
		attack_skill = 3
		defense_skill = 3
		planning_skill = 3
		logistics_skill = 3
	}

	create_field_marshal = {
		name = "Amir Eshel"
		picture = "Portrait_Amir_Eshel.dds"
		traits = { old_guard logistics_wizard }
		id = 30616
		skill = 4
		attack_skill = 4
		defense_skill = 4
		planning_skill = 4
		logistics_skill = 4
	}

	create_field_marshal = {
		name = "Yair Golan"
		picture = "Portrait_Yair_Golan.dds"
		traits = { defensive_doctrine }
		id = 30617
		skill = 2
		attack_skill = 2
		defense_skill = 2
		planning_skill = 2
		logistics_skill = 2
	}

	create_field_marshal = {
		name = "Amikam Norkin"
		picture = "Portrait_Amikam_Norkin.dds"
		traits = { fast_planner }
		id = 30618
		skill = 2
		attack_skill = 2
		defense_skill = 2
		planning_skill = 2
		logistics_skill = 2
	}

	create_field_marshal = {
		name = "Hagai Topolansky"
		picture = "Portrait_Hagai_Topolansky.dds"
		traits = { inspirational_leader }
		id = 30619
		skill = 2
		attack_skill = 2
		defense_skill = 2
		planning_skill = 2
		logistics_skill = 2
	}

	create_corps_commander = {
		name = "Itzik Turgeman"
		picture = "Portrait_Itzik_Turgeman.dds"
		traits = { ranger trait_engineer }
		id = 30620
		skill = 1
		attack_skill = 1
		defense_skill = 1
		planning_skill = 1
		logistics_skill = 1
	}

	create_corps_commander = {
		name = "Ghassan Alian"
		picture = "Portrait_Ghassan_Alian.dds"
		traits = { trait_mountaineer }
		id = 30621
		skill = 1
		attack_skill = 1
		defense_skill = 1
		planning_skill = 1
		logistics_skill = 1
	}

	create_corps_commander = {
		name = "Nadav Lotan"
		picture = "Portrait_Nadav_Lotan.dds"
		traits = { panzer_leader trait_engineer }
		id = 30622
		skill = 1
		attack_skill = 1
		defense_skill = 1
		planning_skill = 1
		logistics_skill = 1
	}

	create_corps_commander = {
		name = "Dan Goldfus"
		picture = "Portrait_Dan_Goldfus.dds"
		traits = { ranger }
		id = 30623
		skill = 1
		attack_skill = 1
		defense_skill = 1
		planning_skill = 1
		logistics_skill = 1
	}

	create_corps_commander = {
		name = "Guy Hazut"
		picture = "Portrait_Guy_Hazut.dds"
		traits = { ranger }
		id = 30624
		skill = 1
		attack_skill = 1
		defense_skill = 1
		planning_skill = 1
		logistics_skill = 1
	}

	create_corps_commander = {
		name = "Nimrod Aloni"
		picture = "Portrait_Nimrod_Aloni.dds"
		traits = { commando ranger }
		id = 30625
		skill = 1
		attack_skill = 1
		defense_skill = 1
		planning_skill = 1
		logistics_skill = 1
	}

	create_corps_commander = {
		name = "Amir Baram"
		picture = "Portrait_Amir_Baram.dds"
		traits = { trait_engineer }
		id = 30626
		skill = 1
		attack_skill = 1
		defense_skill = 1
		planning_skill = 1
		logistics_skill = 1
	}

	create_corps_commander = {
		name = "David Zini"
		picture = "Portrait_David_Zini.dds"
		traits = { commando urban_assault_specialist }
		id = 30627
		skill = 1
		attack_skill = 1
		defense_skill = 1
		planning_skill = 1
		logistics_skill = 1
	}

	create_corps_commander = {
		name = "Lior Karmeli"
		picture = "Portrait_Lior_Karmeli.dds"
		traits = { panzer_leader desert_fox }
		id = 30628
		skill = 1
		attack_skill = 1
		defense_skill = 1
		planning_skill = 1
		logistics_skill = 1
	}

	create_corps_commander = {
		name = "Amir Abulafia"
		picture = "Portrait_Amir_Abulafia.dds"
		traits = { ranger fortress_buster }
		id = 30629
		skill = 1
		attack_skill = 1
		defense_skill = 1
		planning_skill = 1
		logistics_skill = 1
	}

	create_corps_commander = {
		name = "Moti Almoz"
		picture = "Portrait_Moti_Almoz.dds"
		traits = { trait_engineer }
		id = 30630
		skill = 2
		attack_skill = 2
		defense_skill = 2
		planning_skill = 2
		logistics_skill = 2
	}

	create_corps_commander = {
		name = "Tamir Yadai"
		picture = "Portrait_Tamir_Yadai.dds"
		traits = { urban_assault_specialist }
		id = 30631
		skill = 2
		attack_skill = 2
		defense_skill = 2
		planning_skill = 2
		logistics_skill = 2
	}

	create_corps_commander = {
		name = "Muni Katz"
		picture = "Portrait_Muni_Katz.dds"
		traits = { naval_invader swamp_fox }
		id = 30632
		skill = 2
		attack_skill = 2
		defense_skill = 2
		planning_skill = 2
		logistics_skill = 2
	}

	create_corps_commander = {
		name = "Nadav Padan"
		picture = "Portrait_Nadav_Padan.dds"
		traits = { trickster }
		id = 30633
		skill = 2
		attack_skill = 2
		defense_skill = 2
		planning_skill = 2
		logistics_skill = 2
	}

	create_corps_commander = {
		name = "Eyal Zamir"
		picture = "Portrait_Eyal_Zamir.dds"
		traits = { desert_fox }
		id = 30634
		skill = 2
		attack_skill = 2
		defense_skill = 2
		planning_skill = 2
		logistics_skill = 2
	}

	create_corps_commander = {
		name = "Amos Hacohen"
		picture = "Portrait_Amos_Hacohen.dds"
		traits = { ranger hill_fighter }
		id = 30635
		skill = 1
		attack_skill = 1
		defense_skill = 1
		planning_skill = 1
		logistics_skill = 1
	}

	create_corps_commander = {
		name = "Roi Elkabetz"
		picture = "Portrait_Roi_Elkabetz.dds"
		traits = { fortress_buster }
		id = 30636
		skill = 1
		attack_skill = 1
		defense_skill = 1
		planning_skill = 1
		logistics_skill = 1
	}

	create_corps_commander = {
		name = "Eli Pollack"
		picture = "Portrait_Eli_Pollack.dds"
		traits = { trickster }
		id = 30637
		skill = 1
		attack_skill = 1
		defense_skill = 1
		planning_skill = 1
		logistics_skill = 1
	}

	create_corps_commander = {
		name = "Yaacov Shahrbani"
		picture = "Portrait_Yaacov_Sharbani.dds"
		traits = { trickster }
		id = 30638
		skill = 1
		attack_skill = 1
		defense_skill = 1
		planning_skill = 1
		logistics_skill = 1
	}

	create_corps_commander = {
		name = "Shahar Sochat"
		picture = "Portrait_Shahar_Sochat.dds"
		traits = { bearer_of_artillery }
		id = 30639
		skill = 1
		attack_skill = 1
		defense_skill = 1
		planning_skill = 1
		logistics_skill = 1
	}

	create_navy_leader = {
		name = "Ram Rothberg"
		picture = "Portrait_Ram_Rothberg.dds"
		traits = { old_guard_navy superior_tactician }
		id = 30640
	}

	create_navy_leader = {
		name = "Dror Friedman"
		picture = "Portrait_Dror_Friedman.dds"
		traits = { seawolf }
		id = 30641
	}

}

2017.1.1 = {
	capital = 207
	oob = "ISR_2017"
	set_convoys = 25
	if = {
		limit = {
			has_dlc = "Man the Guns"
		}
		set_naval_oob = "ISR_2017_naval_mtg"
		else = {
			set_naval_oob = "ISR_2017_naval_legacy"
		}
	}
	
	#Flags
	#set_country_flag = gdp_8
	set_country_flag = Major_Non_NATO_Ally
	set_country_flag = Major_Importer_US_Arms #Trends-in-international-arms-transfers-2016.pdf
	set_country_flag = positive_small_medium_business_owners
	set_country_flag = ISR_FC_SYR
	set_global_flag = sell_ISR_infantry_weapons5
	clr_global_flag = sell_ISR_infantry_weapons4
	set_global_flag = sell_ISR_cc_equi_4
	clr_global_flag = sell_ISR_cc_equi_3
	set_global_flag = sell_ISR_anti_tank_2
	set_global_flag = sell_ISR_H_anti_tank_2
	set_global_flag = sell_ISR_arty_2
	clr_global_flag = sell_ISR_arty_1
	
	#Nat focus
	complete_national_focus = bonus_tech_slots
	complete_national_focus = Generic_4K_GDPC_slot
	complete_national_focus = Generic_15K_GDPC_slot
	complete_national_focus = Generic_30K_GDPC_slot
	complete_national_focus = Generic_4_IC_slot
	complete_national_focus = Generic_8_IC_slot
	complete_national_focus = Generic_16_IC_slot
	
	add_ideas = {
		gdp_7
		#pop_050
		medium_corruption
		gdp_8
		judaism
		fast_growth
		defence_06
		edu_04
		health_03
		social_04
		bureau_03
		police_03
		draft_army
		drafted_women
		Major_Non_NATO_Ally
		the_military
		small_medium_business_owners
		intelligence_community
		intervention_limited_interventionism
		USA_usaid #https://explorer.usaid.gov/aid-dashboard.html
		western_country
		large_far_right_movement
		#hybrid
		#tax_cost_27
		
	}
	
	# Starting tech
	set_technology = {
		
		command_control_equipment4 = 1
		
		night_vision_4 = 1
		
		#MTAR-21
		infantry_weapons5 = 1
		
		#Namer
		IFV_4 = 1
		IFV_5 = 1
		
		#Plasan Sand Cat
		util_vehicle_4 = 1
		
		#ATHOS 2052
		artillery_0 = 1
		artillery_1 = 1
		artillery_2 = 1
		
		Arty_upgrade_1 = 1
		Arty_upgrade_2 = 1
		Arty_upgrade_3 = 1
		
		#Rascal
		SP_arty_2 = 1
		
		#LAR-160
		SP_R_arty_0 = 1
		SP_R_arty_1 = 1
		
		#SPYDER SAM
		Anti_Air_2 = 1
		AA_upgrade_1 = 1
		AA_upgrade_3 = 1
		
		SP_Anti_Air_2 = 1
		
		Air_UAV1 = 1
		Air_UAV2 = 1
		
		body_armor_2010 = 1
		
		diesel_attack_submarine_1 = 1
		
	}
	
	### Economy
	set_variable = { var = debt value = 214 }
	set_variable = { var = treasury value = 95 }
	set_variable = { var = int_investments value = 0 }
	set_variable = { var = tax_rate value = 32 }
	#initial_money_setup = yes
	
	set_politics = {

		parties = {
			democratic = {
				popularity = 62
			}

			fascism = {
				popularity = 0
			}
			
			communism = {
				popularity = 10
			}
			
			neutrality = {
				popularity = 22
			}
			
			nationalist = {
				popularity = 6
			}
			
		}
		
		ruling_party = democratic
		last_election = "2015.3.17"
		election_frequency = 48
		elections_allowed = yes
	}
	
	start_politics_input = yes
	
	### Election Threshold
	set_variable = { election_threshold = 0.03 }
	
	### Party Popularities
	set_variable = { party_pop_array^1 = 0.35 } #conservatism
	set_variable = { party_pop_array^2 = 0.05 } #liberalism
	set_variable = { party_pop_array^3 = 0.15 } #socialism
	set_variable = { party_pop_array^0 = 0.07 } #Western_Autocracy
	set_variable = { party_pop_array^4 = 0.03 } #Communist-State
	set_variable = { party_pop_array^6 = 0.02 } #Conservative
	set_variable = { party_pop_array^7 = 0.02 } #Autocracy
	set_variable = { party_pop_array^5 = 0.03 } #anarchist_communism
	set_variable = { party_pop_array^14 = 0.09 } #Neutral_conservatism
	set_variable = { party_pop_array^18 = 0.04 } #neutral_Social
	set_variable = { party_pop_array^13 = 0.05 } #Neutral_Autocracy
	set_variable = { party_pop_array^12 = 0.03 } #Neutral_Muslim_Brotherhood
	set_variable = { party_pop_array^17 = 0.01 } #Neutral_green
	set_variable = { party_pop_array^20 = 0.06 } #Nat_Populism
	
	### Ruling Party
	add_to_array = { ruling_party = 1 } #conservatism
	
	#optional: special custom values representing % of votes in last election
	
	set_variable = { party_pop_elect_array^1 = 0.234 } #conservatism
	set_variable = { party_pop_elect_array^12 = 0.105 } #Neutral_Muslim_Brotherhood
	set_variable = { party_pop_elect_array^14 = 0.088 } #Neutral_conservatism
	set_variable = { party_pop_elect_array^0 = 0.067 } #Western_Autocracy
	set_variable = { party_pop_elect_array^20 = 0.057 } #Nat_Populism
	set_variable = { party_pop_elect_array^13 = 0.05 } #Neutral_Autocracy
	set_variable = { party_pop_elect_array^18 = 0.039 } #neutral_Social
	
	startup_politics = yes

	create_country_leader = {
		name = "Benjamin Netanyahu"
		desc = ""
		picture = "Benjamin_Netanyahu.dds"
		ideology = conservatism
		traits = {
			#
		}
	}

	create_equipment_variant = {
		name = "Wolf Armoured Vehicle"
		type = util_vehicle_4
		upgrades = {
			Util_Armor = 2
			Util_Mobility = 0
			Util_Weapons = 0
		}
		obsolete = no
	}

	create_equipment_variant = {
		name = "RAM-2000"
		type = util_vehicle_4
		upgrades = {
			Util_Armor = 1
			Util_Mobility = 0
			Util_Weapons = 0
		}
		obsolete = no
	}

	create_equipment_variant = {
		name = "Nakpadon"
		type = IFV_4
		upgrades = {
			tank_reliability_upgrade = 1
			tank_engine_upgrade = 0
			tank_armor_upgrade = 2
			tank_gun_upgrade = 0
		}
		obsolete = yes
	}

	create_equipment_variant = {
		name = "Iron Dome"
		type = SP_Anti_Air_2
		upgrades = {
			SP_AA_Fire_Control = 2
			SP_AA_Warhead = 2
			SP_AA_Weight = 0
		}
	}
}