﻿2000.1.1 = {
	capital = 312
	oob = "MLC_2000"
	
	if = {
		limit = {
			has_start_date < 2000.1.2
		}
		declare_war_on = {
			target = DRC
			type = civil_war
		}
	
		UGA = {
			add_to_war = {
				targeted_alliance = MLC
				enemy = DRC
			}
		}
	}
	
	set_technology = { 
		
		###TEMPLATE TECH###
		
		infantry_weapons = 1
		command_control_equipment = 1
		Anti_tank_0 = 1
		Anti_Air_0 = 1
	}
	
	add_ideas = {
		defence_09
	}
	
	#Influence system
	init_influence = yes
	set_variable = { domestic_influence_amount = 25 }
	add_to_array = { influence_array = UGA.id }
	add_to_array = { influence_array_val = 120 }
	add_to_array = { influence_array = RWA.id }
	add_to_array = { influence_array_val = 4 }
	add_to_array = { influence_array = DRC.id }
	add_to_array = { influence_array_val = 0 }
	startup_influence = yes
	
	set_politics = {
		parties = {
			democratic = { #western
				popularity = 60.0
			}
			communism = { #Emerging
				popularity = 20.0
			}
			fascism = { #Salafist
				popularity = 0.0
			}
			neutrality = { #neutrality
				popularity = 20.0
			}
			nationalist = { #nationalist
				popularity = 0.0
			}
		}
		
		ruling_party = democratic
		last_election = "1997.5.20"
		election_frequency = 60
		elections_allowed = no
	}
	
	start_politics_input = yes

	### Party Popularities
	set_variable = { party_pop_array^0 = 0 } #Western_Autocracy
	set_variable = { party_pop_array^1 = 0.09 } #conservatism
	set_variable = { party_pop_array^2 = 0.51 } #liberalism
	set_variable = { party_pop_array^3 = 0 } #socialism
	set_variable = { party_pop_array^4 = 0 } #Communist-State
	set_variable = { party_pop_array^5 = 0.2 } #anarchist_communism
	set_variable = { party_pop_array^6 = 0 } #Conservative
	set_variable = { party_pop_array^7 = 0 } #Autocracy
	set_variable = { party_pop_array^8 = 0 } #Mod_Vilayat_e_Faqih
	set_variable = { party_pop_array^9 = 0 } #Vilayat_e_Faqih
	set_variable = { party_pop_array^10 = 0 } #Kingdom
	set_variable = { party_pop_array^11 = 0 } #Caliphate
	set_variable = { party_pop_array^12 = 0 } #Neutral_Muslim_Brotherhood
	set_variable = { party_pop_array^13 = 0 } #Neutral_Autocracy
	set_variable = { party_pop_array^14 = 0 } #Neutral_conservatism
	set_variable = { party_pop_array^15 = 0 } #oligarchism
	set_variable = { party_pop_array^16 = 0 } #Neutral_Libertarian
	set_variable = { party_pop_array^17 = 0 } #Neutral_green
	set_variable = { party_pop_array^18 = 0 } #neutral_Social
	set_variable = { party_pop_array^19 = 0.2 } #Neutral_Communism
	set_variable = { party_pop_array^20 = 0 } #Nat_Populism
	set_variable = { party_pop_array^21 = 0 } #Nat_Fascism
	set_variable = { party_pop_array^22 = 0 } #Nat_Autocracy
	set_variable = { party_pop_array^23 = 0 } #Monarchist

	### Ruling Party
	add_to_array = { ruling_party = 2 }

	startup_politics = yes

	create_country_leader = {
		name = "Jean-Pierre Bemba"
		picture = "Jean_Pierre_Bemba.dds"
		ideology = liberalism
		traits = {
			western_liberalism
		}
	}
	
	create_field_marshal = {
		name = "Thomas Lubanga Dyilo"
		picture = "Thomas_Lubanga_Dyilo.dds"
		traits = { harsh_leader }
		id = 81600
		skill = 2
		attack_skill = 2
		defense_skill = 2
		planning_skill = 2
		logistics_skill = 2

	}
	create_corps_commander = {
		name = "Dieudonné Amuli Bahigwa"
		picture = "Dieudonne_Amuli_Bahigwa.dds"
		traits = { jungle_rat trait_engineer }
		id = 81601
		skill = 3
		attack_skill = 2
		defense_skill = 3
		planning_skill = 2
		logistics_skill = 3
	}	
}