ideas = {

	country = {
			
		ITA_buona_scuola_research = {
			
			allowed = {
				always = no
			}
			
			picture = research_bonus
			
			modifier = {
				research_speed_factor = -0.02
			}
		}
		
		ITA_bureaucratic_reforms_research = {
			
			allowed = {
				always = no
			}
			
			picture = scientists_defect
			
			modifier = {
				political_power_factor = 0.05
				research_speed_factor = -0.01
			}
		}
		
		ITA_economic_reforms_research = {
			
			allowed = {
				always = no
			}
			
			picture = research_bonus
			
			modifier = {
				research_speed_factor = -0.01
			}
		}
		
		ITA_education_reforms_research = {
			
			allowed = {
				always = no
			}
			
			picture = research_bonus
			
			modifier = {
				stability_factor = 0.05
				research_speed_factor = -0.01
			}
		}
		
		ITA_european_logistics_goods = {
			
			allowed = {
				always = no
			}
			
			picture = idea_eu_member2
			
			modifier = {
				consumer_goods_factor = -0.01
			}
		}

		ITA_north_miracle_industry = {
			
			allowed = {
				always = no
			}
			
			picture = production_bonus
			
			modifier = {
				production_speed_industrial_complex_factor = 0.075
				production_speed_arms_factory_factor = 0.075
			}
		}
		
		ITA_mafia = {
			
			allowed = {
				original_tag = ITA
			}
			
			picture = spy_political
			
			modifier = {
				stability_factor = -0.05
				research_speed_factor = 0.05
				consumer_goods_factor = 0.05
				production_speed_industrial_complex_factor = -0.2
				political_power_gain = -0.15
			}
		}
		
		ITA_mafia_curtailed = {
			
			allowed = {
				original_tag = ITA
			}
			
			picture = spy_political
			
			modifier = {
				stability_factor = -0.03
				research_speed_factor = 0.025
				consumer_goods_factor = 0.02
				production_speed_industrial_complex_factor = -0.1
				political_power_gain = -0.1
			}
		}
		
		ITA_mafia_sabotages_industry = {
			
			allowed = {
				original_tag = ITA
			}
			
			picture = spy_political
			
			modifier = {
				production_speed_buildings_factor = -0.9
				industry_repair_factor = -0.9
				consumer_goods_factor = 0.1
			}
		}
		
		ITA_mafia_sabotages_military = {
			
			allowed = {
				original_tag = ITA
			}
			
			picture = spy_political
			
			modifier = {
				army_morale_factor = -0.2
				supply_consumption_factor = 0.35
			}
		}
		
		ITA_victory_over_mafia = {
			
			allowed = {
				original_tag = ITA
			}
			
			picture = matignon_agreements
			
			modifier = {
				stability_factor = 0.1
			}
		}
		
		ITA_corruption = {
		
			picture = matignon_agreements
			
			allowed = {
				original_tag = ITA
			}
			
			modifier = {
				stability_factor = -0.05
				political_power_gain = -0.15
			}
		}
		
		ITA_parliament_dismantled = {
			
			allowed = {
				always = no
			}
			
			picture = fascism2
			
			modifier = {
				stability_factor = -0.1
				political_power_factor = 0.3
			}
		}
		
		ITA_kingdom_restored = {
			
			allowed = {
				always = no
			}
			
			picture = monarchy
			
			modifier = {
				army_morale_factor = 0.05
				nationalist_drift = 0.05
				justify_war_goal_time = -0.1
			}
		}
		
		ITA_divide_et_impera = {
			picture = fascism3
			
			allowed = {
				always = no
			}
			
			modifier = {
				justify_war_goal_time = -0.2
				political_power_factor = 0.25
				army_org_Factor = 0.05
			}
		}
		
		ITA_new_march_on_rome = {
		
			picture = fascism2
			
			allowed = {
				always = no
			}
			
			modifier = {
				justify_war_goal_time = -0.2
				army_org_Factor = 0.05
				stability_factor = 0.05
			}
		}
		
		ITA_southern_question = {
		
			picture = disjointed_government
			allowed = {
				always = no
			}
			modifier = {
				political_power_factor = -0.1
				stability_factor = -0.1
			}
		}
		
		ITA_european_logistics_ideology_focus = {
			
			allowed = {
				always = no
			}
			
			picture = EU_member3
			
			modifier = {
				production_speed_industrial_complex_factor = 0.20
			}
		
		}
		
		ITA_migrants_from_africa = {
			
			allowed = {
				always = no
			}
			
			picture = production_bonus
			
			modifier = {
				MONTHLY_POPULATION = 0.03
				consumer_goods_factor = 0.02
				stability_factor = -0.02
			}
		
		}
		
		ITA_migrants_from_africa_encouraged = {
			
			allowed = {
				always = no
			}
			
			picture = agriculture
			
			modifier = {
				MONTHLY_POPULATION = 0.05
				consumer_goods_factor = 0.03
				stability_factor = -0.03
			}
		
		}
		
		ITA_migrants_from_africa_limited = {
			
			allowed = {
				always = no
			}
			
			picture = factory_strikes
			
			modifier = {
				MONTHLY_POPULATION = 0.01
				consumer_goods_factor = 0.01
				stability_factor = -0.01
			}
		}
		
		ITA_restore_the_currency_idea = {
		
			picture = trade
			
			allowed = {
				always = no
			}
			
			modifier = {
				political_power_gain = 0.1
			}
		}
		
		ITA_italy_first_development = {
			
			allowed = {
				always = no
			}
			
			picture = long_lance
			
			modifier = {
				production_speed_industrial_complex_factor = 0.1
				production_speed_arms_factory_factor = 0.1
			}
		}
		
		ITA_quality_army = {
		
			picture = morale_bonus
			
			allowed = {
				always = no
			}
			modifier = {
				army_leader_start_level = 1
				experience_gain_army_factor = 0.05
				army_morale_factor = 0.05
			}
		}
		
		ITA_quantity_army = {
		
			picture = manpower_bonus
			
			allowed = {
				always = no
			}
			modifier = {
				conscription = 0.04
			}
		}
		
		ITA_national_research_bonus = {
			
			allowed = {
				always = no
			}
			
			picture = research_bonus
			
			modifier = {
				research_speed_factor = -0.02
			}
		}
	}
}