ideas = {

	Infantry_Weapon_Company = {
	
		designer = yes
		
		CAN_diemaco_infantry_weapon_company = {
		
			picture = Diemaco_CAN
			
			allowed = {
				tag = CAN
			}
			cost = 150
			
			removal_cost = 10
			
			research_bonus = {
				Cat_INF_WEP = -0.217
			}
			
			traits = {
				Cat_INF_WEP_7
			
			}
			ai_will_do = {
				factor = 0.7 #All countries need a land army, vehicles are part of modern warfare
				
				modifier = {
					num_of_military_factories > 5 #has the industry to take advantage of the company
					factor = 1
				}
				modifier = {
					is_major = yes #Majors project power
					factor = 1
				}
			}
			
		}
	}
	
	Vehicle_Company = {
	
		designer = yes
		
		CAN_general_dynamics_land_systems_vehicle_company = {
		
			picture = General_Dynamics_Land_Systems_CAN
			
			allowed = {
				tag = CAN
			}
			cost = 150
			
			removal_cost = 10
			
			research_bonus = {
				Cat_ARMOR = -0.248
			}
			
			traits = {
				Cat_ARMOR_8
			
			}
			ai_will_do = {
				factor = 0.8 #All countries need a land army, vehicles are part of modern warfare
				
				modifier = {
					num_of_military_factories > 10 #has the industry to take advantage of the company
					factor = 1
				}
				modifier = {
					is_major = yes #Majors project power
					factor = 1
				}
			}
			
		}
	}
	
	Ship_Company = {
	
		designer = yes
		
		CAN_marine_industries_limited_ship_company = {
		
			picture = Marine_Industries_Limited_CAN
			
			allowed = {
				tag = CAN
			}
			cost = 150
			
			removal_cost = 10
			
			research_bonus = {
				Cat_SURFACE_SHIP = -0.186
			}
			
			traits = {
				Cat_NAVAL_EQP_6
			
			}
			ai_will_do = {
				factor = 0.6
				
				modifier = {
					has_navy_size = { size > 25 } #has a large navy
					factor = 1
				}
				modifier = {
					num_of_naval_factories > 3 #has the industry to take advantage of the company
					factor = 1
				}
				modifier = {
					is_major = yes #Majors project power
					factor = 1
				}
				modifier = {
					NOT = { #need to have ports
						any_owned_state = {
							is_coastal = yes
						}
					}
					factor = 10
				}
			}
			
		}
	}
	
}
