set_leader_JOR = {

	if = { limit = { has_country_flag = set_anarchist_communism }

		if = { limit = { check_variable = { anarchist_communism_leader = 0 } }
			add_to_variable = { anarchist_communism_leader = 1 }
			hidden_effect = { kill_country_leader = yes }

			create_country_leader = {
				name = "Dr. Saeed Thyab"
				picture = "generic.dds"
				ideology = anarchist_communism
				traits = {
					emerging_anarchist_communism
				}
			}

			if = { limit = { has_country_flag = do_not_retire } subtract_from_variable = { anarchist_communism_leader = 1 } }
			if = { limit = { date < 2016.1.2 } set_temp_variable = { b = 1 } } #skip if 2017
		}
		if = { limit = { check_variable = { anarchist_communism_leader = 1 } NOT = { check_variable = { b = 1 } } }
			add_to_variable = { anarchist_communism_leader = 1 }
			hidden_effect = { kill_country_leader = yes }

			create_country_leader = {
				name = "Akram al-Homsi"
				picture = "generic.dds"
				ideology = anarchist_communism
				traits = {
					emerging_anarchist_communism
				}
			}

			if = { limit = { has_country_flag = do_not_retire } subtract_from_variable = { anarchist_communism_leader = 1 } }
			set_temp_variable = { b = 1 }
		}
	}
	else_if = { limit = { has_country_flag = set_Neutral_Muslim_Brotherhood }
		if = { limit = { check_variable = { Neutral_Muslim_Brotherhood_leader = 0 } }
			add_to_variable = { Neutral_Muslim_Brotherhood_leader = 1 }
			hidden_effect = { kill_country_leader = yes }

			create_country_leader = {
				name = "Dr. Abdul Latif Arabiyat"
				picture = "generic.dds"
				ideology = Neutral_Muslim_Brotherhood
				traits = {
					neutrality_Neutral_Muslim_Brotherhood
				}
			}

			if = { limit = { has_country_flag = do_not_retire } subtract_from_variable = { Neutral_Muslim_Brotherhood_leader = 1 } }
			if = { limit = { date < 2016.1.2 } set_temp_variable = { b = 1 } } #skip if 2017
		}
		if = { limit = { check_variable = { Neutral_Muslim_Brotherhood_leader = 1 } NOT = { check_variable = { b = 1 } } }
			add_to_variable = { Neutral_Muslim_Brotherhood_leader = 1 }
			hidden_effect = { kill_country_leader = yes }

			create_country_leader = {
				name = "Hamza Mansour"
				picture = "generic.dds"
				ideology = Neutral_Muslim_Brotherhood
				traits = {
					neutrality_Neutral_Muslim_Brotherhood
				}
			}

			if = { limit = { has_country_flag = do_not_retire } subtract_from_variable = { Neutral_Muslim_Brotherhood_leader = 1 } }
			set_temp_variable = { b = 1 }
		}
	}
	else_if = { limit = { has_country_flag = set_Nat_Autocracy }
		if = { limit = { check_variable = { Nat_Autocracy_leader = 0 } }
			add_to_variable = { Nat_Autocracy_leader = 1 }
			hidden_effect = { kill_country_leader = yes }

			create_country_leader = {
				name = "Gen. Mohammad Al-Malkawi"
				picture = "generic.dds"
				ideology = Nat_Autocracy
				traits = {
					nationalist_Nat_Autocracy
				}
			}

			if = { limit = { has_country_flag = do_not_retire } subtract_from_variable = { Nat_Autocracy_leader = 1 } }
			if = { limit = { date < 2016.1.2 } set_temp_variable = { b = 1 } } #skip if 2017
		}
		if = { limit = { check_variable = { Nat_Autocracy_leader = 1 } NOT = { check_variable = { b = 1 } } }
			add_to_variable = { Nat_Autocracy_leader = 1 }
			hidden_effect = { kill_country_leader = yes }

			create_country_leader = {
				name = "Lt Gen. Mahmoud Freihat"
				picture = "generic.dds"
				ideology = Nat_Autocracy
				traits = {
					nationalist_Nat_Autocracy
				}
			}

			if = { limit = { has_country_flag = do_not_retire } subtract_from_variable = { Nat_Autocracy_leader = 1 } }
			set_temp_variable = { b = 1 }
		}
	}
	else_if = { limit = { has_country_flag = set_liberalism }
		if = { limit = { check_variable = { liberalism_leader = 0 } }
			add_to_variable = { liberalism_leader = 1 }
			hidden_effect = { kill_country_leader = yes }

			create_country_leader = {
				name = "Mazin Riyal"
				picture = "generic.dds"
				ideology = liberalism
				traits = {
					western_liberalism
				}
			}

			if = { limit = { has_country_flag = do_not_retire } subtract_from_variable = { liberalism_leader = 1 } }
			set_temp_variable = { b = 1 }
		}
	}
	else_if = { limit = { has_country_flag = set_Communist-State }
		if = { limit = { check_variable = { Communist-State_leader = 0 } }
			add_to_variable = { Communist-State_leader = 1 }
			hidden_effect = { kill_country_leader = yes }

			create_country_leader = {
				name = "Dr. Munir Hamarneh"
				picture = "generic.dds"
				ideology = Communist-State
				traits = {
					emerging_Communist-State
				}
			}

			if = { limit = { has_country_flag = do_not_retire } subtract_from_variable = { Communist-State_leader = 1 } }
			set_temp_variable = { b = 1 }
		}
	}
	else_if = { limit = { has_country_flag = set_Neutral_Communism }
		if = { limit = { check_variable = { Neutral_Communism_leader = 0 } }
			add_to_variable = { Neutral_Communism_leader = 1 }
			hidden_effect = { kill_country_leader = yes }

			create_country_leader = {
				name = "Abla Abu Elbah"
				picture = "generic.dds"
				ideology = Neutral_Communism
				traits = {
					neutrality_Neutral_Communism
				}
			}

			if = { limit = { has_country_flag = do_not_retire } subtract_from_variable = { Neutral_Communism_leader = 1 } }
			set_temp_variable = { b = 1 }
		}
	}
	else_if = { limit = { has_country_flag = set_Neutral_green }
		if = { limit = { check_variable = { Neutral_green_leader = 0 } }
			add_to_variable = { Neutral_green_leader = 1 }
			hidden_effect = { kill_country_leader = yes }

			create_country_leader = {
				name = "Gandhi abu-Sharar"
				picture = "generic.dds"
				ideology = Neutral_green
				traits = {
					neutrality_Neutral_green
				}
			}

			if = { limit = { has_country_flag = do_not_retire } subtract_from_variable = { Neutral_green_leader = 1 } }
			set_temp_variable = { b = 1 }
		}
	}
}