
state = {
	id = 243
	name = "STATE_243"

	history = {
		owner = KEN
		victory_points = {
			9082 5 
		}
		victory_points = {
			9200 1 
		}
		buildings = {
			infrastructure = 2
			industrial_complex = 1

		}
		add_core_of = KEN
		2017.1.1 = {
			add_manpower = 2000000
			add_manpower = 1774178
		}
	}

	provinces = {
		9082 9200 
	}
	manpower = 7750972
	buildings_max_level_factor = 1.000
	state_category = state_07
}
