state = {
	id = 859
	name = "STATE_859"
	manpower = 3601717
	state_category = state_04

	history = {
		owner = HAI
		victory_points = { 1594 3 } #Cap-Haitien
		
		buildings = {
			infrastructure = 0
			
			1594 = {
				naval_base = 1
			}

		}
		add_core_of = HAI
		2017.1.1 = {
			add_manpower = 1039478
		}
	}

	provinces = {
		  1594
		
		}
}
