state = {
	id = 862
	name = "STATE_862"
	manpower = 2688031
	state_category = state_04
	
	resources = {
		steel = 1
		tungsten = 2
	}

	history = {
		owner = DOM
		victory_points = { 4598 5 } #Santiago
		victory_points = { 10484 3 } #San Francisco
		
		buildings = {
			infrastructure = 4
			industrial_complex = 1

		}
		add_core_of = DOM
		2017.1.1 = {
			add_manpower = 715808
		}
	}

	provinces = {
		  4598 10484
		
		}
}
