set_leader_BRA = {

	if = { limit = { has_country_flag = set_conservatism }

		if = { limit = { check_variable = { conservatism_leader = 0 } }
			add_to_variable = { conservatism_leader = 1 }
			hidden_effect = { kill_country_leader = yes }

			create_country_leader = {
				name = "Jorge Bornhausen"
				picture = "Jorge_Bornhausen.dds"
				ideology = conservatism
				traits = {
					western_conservatism
				}
			}

			if = { limit = { has_country_flag = do_not_retire } subtract_from_variable = { conservatism_leader = 1 } }
			if = { limit = { date < 2016.1.2 } set_temp_variable = { b = 1 } } #skip if 2017
		}
		if = { limit = { check_variable = { conservatism_leader = 1 } NOT = { check_variable = { b = 1 } } }
			add_to_variable = { conservatism_leader = 1 }
			hidden_effect = { kill_country_leader = yes }

			create_country_leader = {
				name = "Antonio Carlos Magalhaes Neto"
				picture = "Antonio_Carlos_Magalhaes_Neto.dds"
				ideology = conservatism
				traits = {
					western_conservatism
				}
			}

			if = { limit = { has_country_flag = do_not_retire } subtract_from_variable = { conservatism_leader = 1 } }
			set_temp_variable = { b = 1 }
		}
	}
	else_if = { limit = { has_country_flag = set_liberalism }
		if = { limit = { check_variable = { liberalism_leader = 0 } }
			add_to_variable = { liberalism_leader = 1 }
			hidden_effect = { kill_country_leader = yes }

			create_country_leader = {
				name = "Fernando Henrique Cardoso"
				picture = "Fernando_Henrique_Cardoso.dds"
				ideology = liberalism
				traits = {
					western_liberalism
				}
			}

			if = { limit = { has_country_flag = do_not_retire } subtract_from_variable = { liberalism_leader = 1 } }
			if = { limit = { date < 2016.1.2 } set_temp_variable = { b = 1 } } #skip if 2017
		}
		if = { limit = { check_variable = { liberalism_leader = 1 } NOT = { check_variable = { b = 1 } } }
			add_to_variable = { liberalism_leader = 1 }
			hidden_effect = { kill_country_leader = yes }

			create_country_leader = {
				name = "Aecio Neves"
				picture = "Aecio.dds"
				ideology = liberalism
				traits = {
					western_liberalism
				}
			}

			if = { limit = { has_country_flag = do_not_retire } subtract_from_variable = { liberalism_leader = 1 } }
			set_temp_variable = { b = 1 }
		}
		if = { limit = { check_variable = { liberalism_leader = 2 } NOT = { check_variable = { b = 1 } } }
			add_to_variable = { liberalism_leader = 1 }
			hidden_effect = { kill_country_leader = yes }

			create_country_leader = {
				name = "João Dória"
				picture = "Doria.dds"
				ideology = liberalism
				traits = {
					western_liberalism
				}
			}

			if = { limit = { has_country_flag = do_not_retire } subtract_from_variable = { liberalism_leader = 1 } }
			set_temp_variable = { b = 1 }
		}
		if = { limit = { check_variable = { liberalism_leader = 3 } NOT = { check_variable = { b = 1 } } }
			add_to_variable = { liberalism_leader = 1 }
			hidden_effect = { kill_country_leader = yes }

			create_country_leader = {
				name = "Aécio Neves"
				picture = "Aecio.dds"
				ideology = liberalism
				traits = {
					western_liberalism
				}
			}

			if = { limit = { has_country_flag = do_not_retire } subtract_from_variable = { liberalism_leader = 1 } }
			set_temp_variable = { b = 1 }
		}
	}
	else_if = { limit = { has_country_flag = set_Communist-State }
		if = { limit = { check_variable = { Communist-State_leader = 0 } }
			add_to_variable = { Communist-State_leader = 1 }
			hidden_effect = { kill_country_leader = yes }

			create_country_leader = {
				name = "Luciana de Oliveria Santos"
				picture = "Luciana_de_Oliveira_Santos.dds"
				ideology = Communist-State
				traits = {
					emerging_Communist-State
				}
			}

			if = { limit = { has_country_flag = do_not_retire } subtract_from_variable = { Communist-State_leader = 1 } }
			if = { limit = { date < 2016.1.2 } set_temp_variable = { b = 1 } } #skip if 2017
		}
	}
	else_if = { limit = { has_country_flag = set_Conservative }
		if = { limit = { check_variable = { Conservative_leader = 0 } }
			add_to_variable = { Conservative_leader = 1 }
			hidden_effect = { kill_country_leader = yes }

			create_country_leader = {
				name = "Levy Fidelix"
				picture = "Levy_Fidelix.dds"
				ideology = Conservative
				traits = {
					emerging_Conservative
				}
			}

			if = { limit = { has_country_flag = do_not_retire } subtract_from_variable = { Conservative_leader = 1 } }
			if = { limit = { date < 2016.1.2 } set_temp_variable = { b = 1 } } #skip if 2017
		}
	}
	else_if = { limit = { has_country_flag = set_anarchist_communism }
		if = { limit = { check_variable = { anarchist_communism_leader = 0 } }
			add_to_variable = { anarchist_communism_leader = 1 }
			hidden_effect = { kill_country_leader = yes }

			create_country_leader = {
				name = "Luiz Inacio Lula De Silva"
				picture = "luiz_inacio_lula_da_silva.dds"
				ideology = anarchist_communism
				traits = {
					emerging_anarchist_communism
				}
			}

			if = { limit = { has_country_flag = do_not_retire } subtract_from_variable = { anarchist_communism_leader = 1 } }
			if = { limit = { date < 2016.1.2 } set_temp_variable = { b = 1 } } #skip if 2017
		}
		if = { limit = { check_variable = { anarchist_communism_leader = 1 } NOT = { check_variable = { b = 1 } } }
			add_to_variable = { anarchist_communism_leader = 1 }
			hidden_effect = { kill_country_leader = yes }

			create_country_leader = {
				name = "Luiz Lula da Silva"
				picture = "Lula.dds"
				ideology = anarchist_communism
				traits = {
					union_man
				}
			}

			if = { limit = { has_country_flag = do_not_retire } subtract_from_variable = { anarchist_communism_leader = 1 } }
			if = { limit = { date < 2016.1.2 } set_temp_variable = { b = 1 } } #skip if 2017
		}
		if = { limit = { check_variable = { anarchist_communism_leader = 2 } NOT = { check_variable = { b = 1 } } }
			add_to_variable = { anarchist_communism_leader = 1 }
			hidden_effect = { kill_country_leader = yes }

			create_country_leader = {
				name = " Michel Temer"
				picture = "Michel_Temer.dds"
				ideology = anarchist_communism
				traits = {
					emerging_anarchist_communism
				}
			}

			if = { limit = { has_country_flag = do_not_retire } subtract_from_variable = { anarchist_communism_leader = 1 } }
			set_temp_variable = { b = 1 }
		}
	}
	else_if = { limit = { has_country_flag = set_Neutral_conservatism }
		if = { limit = { check_variable = { Neutral_conservatism_leader = 0 } }
			add_to_variable = { Neutral_conservatism_leader = 1 }
			hidden_effect = { kill_country_leader = yes }

			create_country_leader = {
				name = "Vasco Neto"
				picture = "generic.dds"
				ideology = Neutral_conservatism
				traits = {
					neutrality_Neutral_conservatism
				}
			}

			if = { limit = { has_country_flag = do_not_retire } subtract_from_variable = { Neutral_conservatism_leader = 1 } }
			if = { limit = { date < 2016.1.2 } set_temp_variable = { b = 1 } } #skip if 2017
		}
		if = { limit = { check_variable = { Neutral_conservatism_leader = 1 } NOT = { check_variable = { b = 1 } } }
			add_to_variable = { Neutral_conservatism_leader = 1 }
			hidden_effect = { kill_country_leader = yes }

			create_country_leader = {
				name = "Eduardo Muchado"
				picture = "eduardo_machado.dds"
				ideology = Neutral_conservatism
				traits = {
					neutrality_Neutral_conservatism
				}
			}

			if = { limit = { has_country_flag = do_not_retire } subtract_from_variable = { Neutral_conservatism_leader = 1 } }
			set_temp_variable = { b = 1 }
		}
	}
	else_if = { limit = { has_country_flag = set_neutral_Social }
		if = { limit = { check_variable = { neutral_Social_leader = 0 } }
			add_to_variable = { neutral_Social_leader = 1 }
			hidden_effect = { kill_country_leader = yes }

			create_country_leader = {
				name = "Ciro Gomes"
				picture = "Ciro_Gomes.dds"
				ideology = neutral_Social
				traits = {
					neutrality_neutral_Social
				}
			}

			if = { limit = { has_country_flag = do_not_retire } subtract_from_variable = { neutral_Social_leader = 1 } }
			if = { limit = { date < 2016.1.2 } set_temp_variable = { b = 1 } } #skip if 2017
		}
		if = { limit = { check_variable = { neutral_Social_leader = 1 } NOT = { check_variable = { b = 1 } } }
			add_to_variable = { neutral_Social_leader = 1 }
			hidden_effect = { kill_country_leader = yes }

			create_country_leader = {
				name = "Roberto Freire"
				picture = "Roberto_Freire.dds"
				ideology = neutral_Social
				traits = {
					neutrality_neutral_Social
				}
			}

			if = { limit = { has_country_flag = do_not_retire } subtract_from_variable = { neutral_Social_leader = 1 } }
			set_temp_variable = { b = 1 }
		}
	}
	else_if = { limit = { has_country_flag = set_Neutral_Communism }
		if = { limit = { check_variable = { Neutral_Communism_leader = 0 } }
			add_to_variable = { Neutral_Communism_leader = 1 }
			hidden_effect = { kill_country_leader = yes }

			create_country_leader = {
				name = "Ze Maria"
				picture = "ze_maria.dds"
				ideology = Neutral_Communism
				traits = {
					neutrality_Neutral_Communism
				}
			}

			if = { limit = { has_country_flag = do_not_retire } subtract_from_variable = { Neutral_Communism_leader = 1 } }
			if = { limit = { date < 2016.1.2 } set_temp_variable = { b = 1 } } #skip if 2017
		}
	}
	else_if = { limit = { has_country_flag = set_Neutral_green }
		if = { limit = { check_variable = { Neutral_green_leader = 0 } }
			add_to_variable = { Neutral_green_leader = 1 }
			hidden_effect = { kill_country_leader = yes }

			create_country_leader = {
				name = "Alfredo Sirkis"
				picture = "Alfredo_Sirkis.dds"
				ideology = Neutral_green
				traits = {
					neutrality_Neutral_green
				}
			}

			if = { limit = { has_country_flag = do_not_retire } subtract_from_variable = { Neutral_green_leader = 1 } }
			if = { limit = { date < 2016.1.2 } set_temp_variable = { b = 1 } } #skip if 2017
		}
		if = { limit = { check_variable = { Neutral_green_leader = 1 } NOT = { check_variable = { b = 1 } } }
			add_to_variable = { Neutral_green_leader = 1 }
			hidden_effect = { kill_country_leader = yes }

			create_country_leader = {
				name = "Jose Luiz de Franca Penna"
				picture = "Jose_Luiz_Penna.dds"
				ideology = Neutral_green
				traits = {
					neutrality_Neutral_green
				}
			}

			if = { limit = { has_country_flag = do_not_retire } subtract_from_variable = { Neutral_green_leader = 1 } }
			set_temp_variable = { b = 1 }
		}
	}
	else_if = { limit = { has_country_flag = set_Nat_Autocracy }
		if = { limit = { check_variable = { Nat_Autocracy_leader = 0 } }
			add_to_variable = { Nat_Autocracy_leader = 1 }
			hidden_effect = { kill_country_leader = yes }

			create_country_leader = {
				name = "Adm. Ademir Sobrinho"
				picture = "Ademir_Sobrinho.dds"
				ideology = Nat_Autocracy
				traits = {
					nationalist_Nat_Autocracy
				}
			}

			if = { limit = { has_country_flag = do_not_retire } subtract_from_variable = { Nat_Autocracy_leader = 1 } }
			if = { limit = { date < 2016.1.2 } set_temp_variable = { b = 1 } } #skip if 2017
		}
	}
	else_if = { limit = { has_country_flag = set_Nat_Populism }
		if = { limit = { check_variable = { Nat_Populism_leader = 0 } }
			add_to_variable = { Nat_Populism_leader = 1 }
			hidden_effect = { kill_country_leader = yes }

			create_country_leader = {
				name = "Luciano Bivar"
				picture = "luciano_bivar.dds"
				ideology = Nat_Populism
				traits = {
					nationalist_Nat_Populism
				}
			}

			if = { limit = { has_country_flag = do_not_retire } subtract_from_variable = { Nat_Populism_leader = 1 } }
			if = { limit = { date < 2016.1.2 } set_temp_variable = { b = 1 } } #skip if 2017
		}
		if = { limit = { check_variable = { Nat_Populism_leader = 1 } NOT = { check_variable = { b = 1 } } }
			add_to_variable = { Nat_Populism_leader = 1 }
			hidden_effect = { kill_country_leader = yes }

			create_country_leader = {
				name = "Jair Bolsnaro"
				picture = "Bolsonaro.dds"
				ideology = Nat_Populism
				traits = {
					nationalist_Nat_Populism
				}
			}

			if = { limit = { has_country_flag = do_not_retire } subtract_from_variable = { Nat_Populism_leader = 1 } }
			set_temp_variable = { b = 1 }
		}
	}
	else_if = { limit = { has_country_flag = set_Monarchist }
		if = { limit = { check_variable = { Monarchist_leader = 0 } }
			add_to_variable = { Monarchist_leader = 1 }
			hidden_effect = { kill_country_leader = yes }

			create_country_leader = {
				name = "Luiz I"
				picture = "luiz_i.dds"
				ideology = Monarchist
				traits = {
					nationalist_Monarchist
				}
			}

			if = { limit = { has_country_flag = do_not_retire } subtract_from_variable = { Monarchist_leader = 1 } }
			if = { limit = { date < 2016.1.2 } set_temp_variable = { b = 1 } } #skip if 2017
		}
	}
	else_if = { limit = { has_country_flag = set_neutral_social }
		if = { limit = { check_variable = { neutral_social_leader = 0 } }
			add_to_variable = { neutral_social_leader = 1 }
			hidden_effect = { kill_country_leader = yes }

			create_country_leader = {
				name = "José Serra"
				picture = "Jose_Serra.dds"
				ideology = neutral_social
				traits = {
					neutrality_neutral_Social
				}
			}

			if = { limit = { has_country_flag = do_not_retire } subtract_from_variable = { neutral_social_leader = 1 } }
			if = { limit = { date < 2016.1.2 } set_temp_variable = { b = 1 } } #skip if 2017
		}
	}
	else_if = { limit = { has_country_flag = set_socialism }
		if = { limit = { check_variable = { socialism_leader = 0 } }
			add_to_variable = { socialism_leader = 1 }
			hidden_effect = { kill_country_leader = yes }

			create_country_leader = {
				name = "Carlos Lupi"
				picture = "Carlos_Lupi.dds"
				ideology = socialism
				traits = {
					western_socialism
				}
			}

			if = { limit = { has_country_flag = do_not_retire } subtract_from_variable = { socialism_leader = 1 } }
			set_temp_variable = { b = 1 }
		}
	}
	else_if = { limit = { has_country_flag = set_Neutral_Libertarian }
		if = { limit = { check_variable = { Neutral_Libertarian_leader = 0 } }
			add_to_variable = { Neutral_Libertarian_leader = 1 }
			hidden_effect = { kill_country_leader = yes }

			create_country_leader = {
				name = "Rafael Lemos"
				picture = "Rafael_Lemos.dds"
				ideology = Neutral_Libertarian
				traits = {
					neutrality_Neutral_Libertarian
				}
			}

			if = { limit = { has_country_flag = do_not_retire } subtract_from_variable = { Neutral_Libertarian_leader = 1 } }
			set_temp_variable = { b = 1 }
		}
	}
	else_if = { limit = { has_country_flag = set_Kingdom }
		if = { limit = { check_variable = { Kingdom_leader = 0 } }
			add_to_variable = { Kingdom_leader = 1 }
			hidden_effect = { kill_country_leader = yes }

			create_country_leader = {
				name = "Kleber Antonio Pivetti Busch"
				picture = "Kleber_AP_Busch.dds"
				ideology = Kingdom
				traits = {
					salafist_Kingdom
				}
			}

			if = { limit = { has_country_flag = do_not_retire } subtract_from_variable = { Kingdom_leader = 1 } }
			set_temp_variable = { b = 1 }
		}
	}
	else_if = { limit = { has_country_flag = set_nat_populism }
		if = { limit = { check_variable = { nat_populism_leader = 0 } }
			add_to_variable = { nat_populism_leader = 1 }
			hidden_effect = { kill_country_leader = yes }

			create_country_leader = {
				name = "Jair Bolsonaro"
				picture = "Bolsonaro.dds"
				ideology = nat_populism
				traits = {
					cornered_fox
				}
			}

			if = { limit = { has_country_flag = do_not_retire } subtract_from_variable = { nat_populism_leader = 1 } }
			set_temp_variable = { b = 1 }
		}
	}
}